…
# Features

The `detect_sdg()` function identifies SDGs in texts that are provided via the `text` argument. The example below runs the `detect_sdg()` for the `projects` data set included in the package prints the results. The data set is character vector containing 500 descriptions of randomly selected University of Basel research projects that were funded by the Swiss National Science Foundation (https://p3.snf.ch/). The analysis produced a total of 461 matches using the three default query systems Aurora, Elsevier, and SIRIS.

```
# detecting SDGs in projects
hits_default <- detect_sdg(projects)
#>
#> Running aurora queries
#> Running siris queries
#> Running elsevier queries
hits_default
#> # A tibble: 461 x 6
#>    document sdg    system   query_id features                                hit
#>  * <fct>    <chr>  <chr>       <int> <chr>                                 <int>
#>  1 1        SDG-03 elsevier        3 tuberculosis, human, tuberculosis, d~     1
#>  2 6        SDG-03 elsevier        3 cancer                                    2
#>  3 8        SDG-03 elsevier        3 vaccine                                   3
#>  4 14       SDG-03 elsevier        3 cancer, cardiovascular, disease, obe~     4
#>  5 15       SDG-03 elsevier        3 disease, human, human, human, diseas~     5
#>  6 17       SDG-13 elsevier       13 climate, prediction                       6
#>  7 19       SDG-03 elsevier        3 mental, health, mental, health, ment~     7
#>  8 19       SDG-03 siris         749 sleep, quality                            1
#>  9 21       SDG-03 elsevier        3 human, medicine, health, human            8
#> 10 22       SDG-03 elsevier        3 cancer, cancer, cancer, cancer, canc~     9
#> # ... with 451 more rows
```
…
